<?xml version="1.0" encoding="utf-8"?>
<!-- Generator: Adobe Illustrator 23.0.3, SVG Export Plug-In . SVG Version: 6.00 Build 0)  -->
<svg version="1.1" id="Capa_1" xmlns="http://www.w3.org/2000/svg" xmlns:xlink="http://www.w3.org/1999/xlink" x="0px" y="0px"
	 viewBox="0 0 227.2 306.1" style="enable-background:new 0 0 227.2 306.1;" xml:space="preserve">
<style type="text/css">
	.st0{fill-rule:evenodd;clip-rule:evenodd;fill:#FFFFFF;}
</style>
<g>
	<path class="st0" d="M113.6,306.1c-30.1,0-58.8-11.8-80.3-33.3C12,251.6,0,223.1,0,192.5C0,143.4,27.5,106.6,70.8,90
		c6.7-2.6,11.4-5.3,13.6-13c-1.8,7.6-6.1,10.7-12.6,13.3c-41.5,16.5-70,55.4-68.3,102.2c0.7,20.3,8,45.2,22.6,61.9
		c16.3,18.8,50.8,16.9,68,13.1c16-3.6,45-15.5,55.3-22.8C136,256,85.5,270.9,85.7,285.5c0.1,9.1,17.7,12.4,29.6,12.6
		c21.6,0.3,39.3-2.4,57.3-13.3c27.5-16.7,48.9-45.4,53.5-76.1C218.1,264.6,170.1,306.1,113.6,306.1z"/>
	<path class="st0" d="M142.3,4.6v66.2c0,5.7,0.7,10.8,11.2,14.8c19.8,7.6,37,20.7,49.8,37.1c15.6,20,24,44.4,24,69.8
		c0.2-47.9-37.6-94.1-82.7-106.4c-5.7-1.6-13-2.9-19.5-3.6c6.5-0.3,13.3-0.6,13.3-7.2V0h3.9h2.5c1.3,0,2.3,1,2.3,2.3
		c0,1.3-1,2.3-2.3,2.3H142.3z"/>
	<path class="st0" d="M128.5,4.6H88.9l0.6,70.5c0.1,6.8,8.7,2.9,26.6,7c-6.6-0.3-26,0.5-34,3.4c2.6-3.1,2.8-5.5,2.8-7V4.6H74.4
		c-1.3,0-2.3-1-2.3-2.3c0-1.3,1-2.3,2.3-2.3h47C120.8,3.9,124.3,4.4,128.5,4.6z"/>
	<path class="st0" d="M175.7,182.3c0.7,3.7,1,7.4,1,11.3c0,33.9-27.5,61.4-61.4,61.4c-33.9,0-61.4-27.5-61.4-61.4
		c0-14.6,5.1-28,13.6-38.6c3.3,4.6,8.7,7.6,14.8,7.6c7.6,0,14.1-4.6,16.9-11.2c4.2,2.2,8.5,5.6,12.6,10.4
		c10.5,12.5,18.2,19.1,29.7,21.6C150,185.2,160.5,184.6,175.7,182.3L175.7,182.3z M75.8,113.5c2.5,0,4.5,2,4.5,4.5
		c0,2.5-2,4.5-4.5,4.5c-2.5,0-4.5-2-4.5-4.5C71.3,115.6,73.3,113.5,75.8,113.5L75.8,113.5z M94.3,117.9c3.8,0,6.9,3.1,6.9,6.9
		c0,3.8-3.1,6.9-6.9,6.9c-3.8,0-6.9-3.1-6.9-6.9C87.4,121,90.5,117.9,94.3,117.9L94.3,117.9z M82.4,132.2c-6.6,0-12,5.4-12,12
		s5.4,12,12,12c6.6,0,12-5.4,12-12S89,132.2,82.4,132.2L82.4,132.2z M99.9,148.1L99.9,148.1c2.6,1.3,5.2,3,7.5,4.9
		c2.4,2,4.7,4.2,6.8,6.7c3.8,4.5,7.7,8.9,12.1,12.6c4.5,3.7,9.6,6.6,15.7,7.9c4.7,1,10.1,1.2,15.4,0.9c5.3-0.3,10.7-1,15.5-1.7
		c0.6-0.1,1-0.7,0.9-1.3c0-0.1,0-0.1,0-0.2c-3.5-13.2-11.3-24.5-21.6-32.4c-10.3-7.9-23.2-12.6-37-12.6c-2.9,0-5.7,0.2-8.5,0.6
		c-2.8,0.4-5.6,1-8.3,1.8c5.7-0.3,11.7-0.1,16.8-0.1c13.3,0,25.7,4.5,35.6,12.1c9.7,7.4,17,17.9,20.5,30.1c-4.4,0.6-9.3,1.2-14,1.5
		c-5.2,0.3-10.3,0.1-14.9-0.8c-5.7-1.2-10.5-3.9-14.8-7.4c-4.3-3.5-8.1-7.9-11.8-12.3C107.3,147.9,100.8,148.1,99.9,148.1z"/>
</g>
</svg>
